Project 1: Wrangling, Exploration, Visualization
…
mutateJoinedData %>% select("Country", "generation", "suicides_no", 
    "suicides_per_100k_pop", "Average_Income")

## # A tibble: 33,122 x 5
##    Country generation      suicides_no suicides_per_100k_pop Average_Income
##    <chr>   <chr>                 <dbl>                 <dbl>          <dbl>
##  1 Albania Generation X             21                  6.71            730
##  2 Albania Silent                   16                  5.19            730
##  3 Albania Generation X             14                  4.83            730
##  4 Albania G.I. Generation           1                  4.59            730
##  5 Albania Boomers                   9                  3.28            730
##  6 Albania G.I. Generation           1                  2.81            730
##  7 Albania Silent                    6                  2.15            730
##  8 Albania Boomers                   4                  1.56            730
##  9 Albania G.I. Generation           1                  0.73            730
## 10 Albania Generation X              0                  0               730
## #  with 33,112 more rows

mutateJoinedData %>% filter(generation == "Silent") %>% filter(year == 
    2015) %>% filter(is.na(Average_Income) == FALSE) %>% group_by(Country, 
    "Income Group") %>% summarize(Average_Income = mean(Average_Income))

## # A tibble: 59 x 3
## # Groups:   Country [59]
##    Country             `"Income Group"` Average_Income
##    <chr>               <chr>                     <dbl>
##  1 Antigua and Barbuda Income Group              12850
##  2 Argentina           Income Group              12570
##  3 Armenia             Income Group               4010
##  4 Australia           Income Group              60500
##  5 Austria             Income Group              47480
##  6 Belgium             Income Group              45570
##  7 Belize              Income Group               4400
##  8 Brazil              Income Group              10190
##  9 Chile               Income Group              14130
## 10 Colombia            Income Group               7330
## #  with 49 more rows

mutateJoinedData %>% filter(generation == "Silent") %>% filter(year == 
    2015) %>% filter(is.na(Average_Income) == FALSE) %>% group_by(Country, 
    "Income group") %>% summarize(MedianSuicide = median(suicides_no))

## # A tibble: 59 x 3
## # Groups:   Country [59]
##    Country             `"Income group"` MedianSuicide
##    <chr>               <chr>                    <dbl>
##  1 Antigua and Barbuda Income group               0  
##  2 Argentina           Income group             136  
##  3 Armenia             Income group               8.5
##  4 Australia           Income group             116. 
##  5 Austria             Income group             142  
##  6 Belgium             Income group             132  
##  7 Belize              Income group               0.5
##  8 Brazil              Income group             280. 
##  9 Chile               Income group              69  
## 10 Colombia            Income group              46  
## #  with 49 more rows

mutateJoinedData %>% filter(generation == "Silent") %>% filter(year == 
    2015) %>% filter(is.na(Average_Income) == FALSE) %>% summarize(NDistinctSuicidesPer100kPop = n_distinct(suicides_per_100k_pop))

## # A tibble: 1 x 1
##   NDistinctSuicidesPer100kPop
##                         <int>
## 1                         100

mutateJoinedData %>% filter(generation == "Silent") %>% filter(year == 
    2015) %>% filter(is.na(Average_Income) == FALSE) %>% group_by(Country, 
    "Income group") %>% summarize(minEstimatedGDPforGeneration = min(EstimatedGDPforGeneration))

## # A tibble: 59 x 3
## # Groups:   Country [59]
##    Country             `"Income group"` minEstimatedGDPforGeneration
##    <chr>               <chr>                                   <dbl>
##  1 Antigua and Barbuda Income group                         13967950
##  2 Argentina           Income group                       8958525870
##  3 Armenia             Income group                        246033550
##  4 Australia           Income group                      40764113500
##  5 Austria             Income group                      13784820920
##  6 Belgium             Income group                      17898756750
##  7 Belize              Income group                          9961600
##  8 Brazil              Income group                      24950826400
##  9 Chile               Income group                       3989012040
## 10 Colombia            Income group                       3681331240
## #  with 49 more rows

mutateJoinedData %>% filter(generation == "Silent") %>% filter(year == 
    2015) %>% filter(is.na(Average_Income) == FALSE) %>% group_by(Country, 
    "Income group") %>% summarize(maxEstimatedGDPforGeneration = max(EstimatedGDPforGeneration))

## # A tibble: 59 x 3
## # Groups:   Country [59]
##    Country             `"Income group"` maxEstimatedGDPforGeneration
##    <chr>               <chr>                                   <dbl>
##  1 Antigua and Barbuda Income group                         22153400
##  2 Argentina           Income group                      16906398600
##  3 Armenia             Income group                        404023540
##  4 Australia           Income group                      53502993500
##  5 Austria             Income group                      21920376480
##  6 Belgium             Income group                      28080279570
##  7 Belize              Income group                         10700800
##  8 Brazil              Income group                      38743256340
##  9 Chile               Income group                       6649832340
## 10 Colombia            Income group                       5241272520
## #  with 49 more rows

mutateJoinedData %>% filter(generation == "Silent") %>% filter(year == 
    2015) %>% filter(is.na(Average_Income) == FALSE) %>% group_by(Country, 
    "Income group") %>% summarize(n())

## # A tibble: 59 x 3
## # Groups:   Country [59]
##    Country             `"Income group"` `n()`
##    <chr>               <chr>            <int>
##  1 Antigua and Barbuda Income group         2
##  2 Argentina           Income group         2
##  3 Armenia             Income group         2
##  4 Australia           Income group         2
##  5 Austria             Income group         2
##  6 Belgium             Income group         2
##  7 Belize              Income group         2
##  8 Brazil              Income group         2
##  9 Chile               Income group         2
## 10 Colombia            Income group         2
## #  with 49 more rows

mutateJoinedData %>% filter(generation == "Silent") %>% filter(year == 
    2015) %>% filter(is.na(Average_Income) == FALSE) %>% group_by(Country, 
    "Income group") %>% summarize(StandardEstimatedGDPforGeneration = sd(EstimatedGDPforGeneration))

## # A tibble: 59 x 3
## # Groups:   Country [59]
##    Country             `"Income group"` StandardEstimatedGDPforGeneration
##    <chr>               <chr>                                        <dbl>
##  1 Antigua and Barbuda Income group                              5787987.
##  2 Argentina           Income group                           5619994703.
##  3 Armenia             Income group                            111715793.
##  4 Australia           Income group                           9007748433.
##  5 Austria             Income group                           5752706505.
##  6 Belgium             Income group                           7199423829.
##  7 Belize              Income group                               522693.
##  8 Brazil              Income group                           9752720740.
##  9 Chile               Income group                           1881484078.
## 10 Colombia            Income group                           1103045057.
## #  with 49 more rows
…
